<svg width="19" height="19" viewBox="0 0 19 19" fill="none" xmlns="http://www.w3.org/2000/svg">
  <path fill-rule="evenodd" clip-rule="evenodd" d="M14.2052 5.71983C14.4004 5.52457 14.4004 5.20798 14.2052 5.01272C14.0099 4.81746 13.6933 4.81746 13.4981 5.01272L9.69219 8.8186L5.71992 4.84633C5.52466 4.65107 5.20808 4.65107 5.01281 4.84633C4.81755 5.04159 4.81755 5.35817 5.01281 5.55344L8.98508 9.5257L5.01278 13.498C4.81752 13.6933 4.81752 14.0098 5.01278 14.2051C5.20805 14.4004 5.52463 14.4004 5.71989 14.2051L9.69219 10.2328L13.4981 14.0387C13.6934 14.234 14.0099 14.234 14.2052 14.0387C14.4005 13.8435 14.4005 13.5269 14.2052 13.3316L10.3993 9.5257L14.2052 5.71983Z" fill="#ffffff"/>
</svg>
