<svg width="6" height="9" viewBox="0 0 6 9" fill="none" xmlns="http://www.w3.org/2000/svg">
    <ellipse cx="1.04608" cy="1.5" rx="1.04608" ry="1" fill="white"/>
    <ellipse cx="4.18427" cy="1.5" rx="1.04608" ry="1" fill="white"/>
    <ellipse cx="1.04608" cy="4.5" rx="1.04608" ry="1" fill="white"/>
    <ellipse cx="4.18427" cy="4.5" rx="1.04608" ry="1" fill="white"/>
    <ellipse cx="1.04608" cy="7.5" rx="1.04608" ry="1" fill="white"/>
    <ellipse cx="4.18427" cy="7.5" rx="1.04608" ry="1" fill="white"/>
    </svg>
